<?xml version="1.0" encoding="utf-16"?>
<!-- Generator: Adobe Illustrator 18.1.1, SVG Export Plug-In . SVG Version: 6.00 Build 0)  -->
<svg version="1.1" id="Layer_1" xmlns="http://www.w3.org/2000/svg" xmlns:xlink="http://www.w3.org/1999/xlink" x="0px" y="0px"
	 viewBox="0 0 113.4 50.7" enable-background="new 0 0 113.4 50.7" xml:space="preserve">
<g>
	<polygon fill-rule="evenodd" clip-rule="evenodd" fill="#785326" points="0.7,46.3 1.2,46.9 1,47.9 1.3,47.5 1.6,48.4 1.3,49.5 
		1.7,50.7 1.6,49.5 2,48.2 2.4,48.3 1.8,47.7 1.6,47 1.6,46.4 1.3,46.2 	"/>
	<path fill-rule="evenodd" clip-rule="evenodd" fill="#227239" d="M4.6,39c2.8,0.7,2.9,1.5,2.2,3.6C6.2,42.5,5,41.6,4.6,39L4.6,39z"
		/>
	<path fill="#785326" d="M5.8,44.2c0,0.6-0.3,1.2-0.8,1.6c-0.5,0.4-1.2,0.6-2.2,0.6c-0.5,0-1-0.1-1.4-0.2C1,46.1,0.6,46,0.4,45.8
		v-1.3h0.1c0.4,0.3,0.8,0.5,1.2,0.7c0.5,0.2,0.9,0.2,1.3,0.2c0.7,0,1.6-0.2,1.6-1c0-0.3-0.1-0.5-0.2-0.6c-0.3-0.3-1.1-0.4-1.6-0.5
		c-0.7-0.1-1.6-0.3-2-0.9c-0.3-0.3-0.4-0.7-0.4-1.2c0-2.3,3.6-2.7,5.1-1.9v1c-0.2,0-3-0.7-3.7,0.2c-0.3,0.3-0.3,0.9,0,1.2
		C2.2,42,3,42.1,3.4,42.2c0.7,0.1,1.4,0.3,1.9,0.8C5.6,43.3,5.8,43.7,5.8,44.2L5.8,44.2z"/>
	<path fill-rule="evenodd" clip-rule="evenodd" fill="#AAAA56" d="M1.1,46.3c-0.2,0-0.4,0-0.6-0.1C0.3,46,0,45.6,0,45.2
		c0-0.3,0.1-0.7,0.4-0.9c0.3-0.2,0.7-0.2,1.1-0.1c0.3,0.1,0.7,0.3,0.8,0.6c0.1,0.5,0.1,1.1-0.2,1.5C1.9,46.6,1.5,46.3,1.1,46.3
		L1.1,46.3z"/>
	<path fill-rule="evenodd" clip-rule="evenodd" fill="#359746" d="M4.3,39c2.9-0.1,3.2,0.7,3,2.9C6.8,41.9,5.4,41.4,4.3,39L4.3,39z"
		/>
	<path fill="#785326" d="M9.7,44.6c0,0.3,0,0.5-0.1,0.8c-0.1,0.4-0.4,0.8-0.8,1c-0.5,0.2-1.1,0.1-1.5-0.1c0,0.5,0,1,0,1.5
		c-0.2,0-0.4,0-0.6,0c0-1.6,0-3.2,0-4.8c0.2,0,0.4,0,0.6,0c0,0.1,0,0.2,0,0.4C7.6,43,8,42.8,8.4,42.8C9.4,42.8,9.7,43.8,9.7,44.6
		L9.7,44.6z M9.1,44.6c0-0.6-0.1-1.3-0.9-1.3c-0.4,0-0.7,0.2-1,0.4c0,0.7,0,1.3,0,2C8.2,46.2,9.1,45.9,9.1,44.6L9.1,44.6z
		 M12.8,43.6c-0.2,0-0.4-0.1-0.6-0.1c-0.2,0-0.4,0-0.5,0.1c-0.2,0.1-0.3,0.2-0.5,0.3c0,0.8,0,1.6,0,2.5c-0.2,0-0.4,0-0.6,0
		c0-1.2,0-2.3,0-3.5c0.2,0,0.4,0,0.6,0c0,0.2,0,0.3,0,0.5c0.2-0.2,0.4-0.3,0.6-0.4c0.3-0.1,0.6-0.1,1-0.1
		C12.8,43.2,12.8,43.4,12.8,43.6L12.8,43.6z M16.3,44.7c0,1-0.5,1.8-1.6,1.8c-1.1,0-1.6-0.8-1.6-1.8c0-1,0.5-1.8,1.6-1.8
		C15.8,42.8,16.3,43.7,16.3,44.7L16.3,44.7z M15.7,44.7c0-0.7-0.2-1.3-1-1.3c-0.8,0-1,0.7-1,1.3c0,0.7,0.2,1.3,1,1.3
		C15.5,46,15.7,45.3,15.7,44.7L15.7,44.7z M20.1,46.4c-0.2,0-0.4,0-0.6,0c0-0.1,0-0.3,0-0.4c-0.4,0.3-0.7,0.5-1.2,0.5
		c-1.6,0-1.2-2.5-1.2-3.6c0.2,0,0.4,0,0.6,0c0,0.7-0.1,1.7,0,2.4c0.1,0.9,1.2,0.6,1.7,0.2c0-0.9,0-1.7,0-2.6c0.2,0,0.4,0,0.6,0
		C20.1,44.1,20.1,45.2,20.1,46.4L20.1,46.4z M23.1,46.4c-0.5,0.1-1.2,0.2-1.5-0.2c-0.4-0.4-0.3-2.1-0.3-2.8c-0.1,0-0.3,0-0.4,0
		c0-0.2,0-0.3,0-0.5c0.1,0,0.3,0,0.4,0c0-0.3,0-0.7,0-1c0.2,0,0.4,0,0.6,0c0,0.3,0,0.7,0,1c0.4,0,0.8,0,1.2,0c0,0.2,0,0.3,0,0.5
		c-0.4,0-0.8,0-1.2,0c0,0.5,0,1.1,0,1.6c0,0.8,0.3,1.2,1.2,0.8C23.1,45.9,23.1,46.3,23.1,46.4L23.1,46.4z M26.3,45.4
		c0,1.3-1.9,1.2-2.7,0.8c0-0.1,0-0.7,0-0.7c0.5,0.4,2.1,0.9,2.1-0.1c0-0.4-0.3-0.4-0.6-0.5c-0.7-0.2-1.5-0.2-1.5-1.1
		c0-0.8,0.8-1.1,1.4-1.1c0.4,0,0.8,0.1,1.2,0.3c0,0.2,0,0.4,0,0.6c-0.1,0-0.7-0.4-1.2-0.4c-0.3,0-0.8,0.1-0.8,0.5
		c0,0.5,0.6,0.5,0.9,0.6C25.7,44.5,26.3,44.7,26.3,45.4L26.3,45.4z"/>
	<path fill-rule="evenodd" clip-rule="evenodd" fill="#FBF8CA" d="M1.1,46.3c-0.2,0-0.3,0-0.5,0C0.8,46.2,1,46,1.2,46
		c0.2,0,0.4,0.3,0.6,0.4C1.6,46.4,1.3,46.3,1.1,46.3L1.1,46.3z"/>
	<path fill-rule="evenodd" clip-rule="evenodd" fill="#C8DA2C" d="M4.5,50.2c0.5,0,1-0.4,1-1c0-0.5-0.4-1-1-1s-1,0.4-1,1
		C3.5,49.8,4,50.2,4.5,50.2L4.5,50.2z"/>
	<path fill-rule="evenodd" clip-rule="evenodd" fill="#A3CA3A" d="M9.6,50.3c0.6,0,1.1-0.5,1.1-1.1c0-0.6-0.5-1.1-1.1-1.1
		c-0.6,0-1.1,0.5-1.1,1.1C8.5,49.8,9,50.3,9.6,50.3L9.6,50.3z"/>
	<path fill-rule="evenodd" clip-rule="evenodd" fill="#80BA41" d="M14.6,50.4c0.6,0,1.2-0.5,1.2-1.2c0-0.6-0.5-1.2-1.2-1.2
		c-0.6,0-1.2,0.5-1.2,1.2C13.5,49.8,14,50.4,14.6,50.4L14.6,50.4z"/>
	<path fill-rule="evenodd" clip-rule="evenodd" fill="#5CA945" d="M19.7,50.4c0.7,0,1.2-0.6,1.2-1.2S20.4,48,19.7,48
		c-0.7,0-1.2,0.6-1.2,1.2S19,50.4,19.7,50.4L19.7,50.4z"/>
	<path fill-rule="evenodd" clip-rule="evenodd" fill="#359746" d="M24.8,50.5c0.7,0,1.3-0.6,1.3-1.3c0-0.7-0.6-1.3-1.3-1.3
		c-0.7,0-1.3,0.6-1.3,1.3C23.5,49.9,24.1,50.5,24.8,50.5L24.8,50.5z"/>
</g>
</svg>
